Nextflix Análise, cluster
…
## # A tibble: 3 x 3
## # Groups:   cluster [2]
##   cluster type        n
##   <chr>   <fct>   <int>
## 1 1       Movie      18
## 2 1       TV Show  2410
## 3 2       Movie    5359

  df_netflix %>% 
  mutate(
         cluster = as.character(cluster.pam$clustering)) %>% 
  group_by(cluster) %>% 
 count(listed_in) 

## # A tibble: 507 x 3
## # Groups:   cluster [2]
##    cluster listed_in                                                  n
##    <chr>   <fct>                                                  <int>
##  1 1       Action & Adventure                                         1
##  2 1       Action & Adventure, Children & Family Movies, Comedies     1
##  3 1       Action & Adventure, Classic Movies, Dramas                 1
##  4 1       Action & Adventure, Comedies                               1
##  5 1       Action & Adventure, Dramas, Sports Movies                  1
##  6 1       Action & Adventure, Horror Movies, Sci-Fi & Fantasy        1
##  7 1       Anime Series                                               8
##  8 1       Anime Series, Crime TV Shows                               3
##  9 1       Anime Series, Crime TV Shows, International TV Shows       9
## 10 1       Anime Series, Crime TV Shows, TV Thrillers                 1
## # … with 497 more rows
…
