Análise Netflix
…
Gráfico volumes de séries e filmes por país

dados_netflix %>% 
  count(country1,sort = T) 

## # A tibble: 85 x 2
##    country1             n
##    <chr>            <int>
##  1 "United States"   2882
##  2 "India"            956
##  3 "United Kingdom"   576
##  4 ""                 507
##  5 "Canada"           259
##  6 "Japan"            237
##  7 "France"           196
##  8 "South Korea"      194
##  9 "Spain"            168
## 10 "Mexico"           123
## # … with 75 more rows
…
